module crud

go 1.14

require (
	github.com/gin-gonic/gin v1.6.2 //ct
	github.com/golang/protobuf v1.4.0 // indirect
	github.com/modern-go/concurrent v0.0.0-20180306012644-bacd9c7ef1dd // indirect
	github.com/modern-go/reflect2 v1.0.1 // indirect
	golang.org/x/sys v0.0.0-20200413165638-669c56c373c4 // indirect
)
